…
sim_results_df
```

    ## # A tibble: 5,000 × 5
    ##        n    mu  iter mu_hat p_value
    ##    <dbl> <dbl> <int>  <dbl>   <dbl>
    ##  1    30     0     1  0.412  0.629 
    ##  2    30     0     2  0.664  0.368 
    ##  3    30     0     3  0.551  0.534 
    ##  4    30     0     4  0.567  0.487 
    ##  5    30     0     5 -1.65   0.0599
    ##  6    30     0     6  1.19   0.229 
    ##  7    30     0     7  0.334  0.738 
    ##  8    30     0     8 -1.19   0.209 
    ##  9    30     0     9  0.122  0.887 
    ## 10    30     0    10  0.684  0.472 
    ## # ℹ 4,990 more rows
…
sim_multi_results_df
```

    ## # A tibble: 30,000 × 5
    ##        n    mu  iter mu_hat p_value
    ##    <dbl> <dbl> <int>  <dbl>   <dbl>
    ##  1    30     1     1  1.52   0.0865
    ##  2    30     1     2  2.11   0.0159
    ##  3    30     1     3  2.01   0.0183
    ##  4    30     1     4  0.165  0.839 
    ##  5    30     1     5  0.108  0.912 
    ##  6    30     1     6  1.56   0.0682
    ##  7    30     1     7  2.04   0.0252
    ##  8    30     1     8  2.40   0.0154
    ##  9    30     1     9  2.15   0.0154
    ## 10    30     1    10  0.500  0.634 
    ## # ℹ 29,990 more rows
…
    ## Warning: There was 1 warning in `mutate()`.
    ## ℹ In argument: `test_results = map2(unsolved_homicides, total_homicides,
    ##   run_prop_test)`.
    ## Caused by warning in `prop.test()`:
    ## ! Chi-squared approximation may be incorrect

``` r
all_city
```

    ## # A tibble: 51 × 7
    ##    city_state    total_homicides unsolved_homicides estimate confidence_interval
    ##    <chr>                   <int>              <int>    <dbl> <chr>              
    ##  1 Albuquerque,…             378                146    0.386 0.337260384254284 …
    ##  2 Atlanta, GA               973                373    0.383 0.352811897036302 …
    ##  3 Baltimore, MD            2827               1825    0.646 0.627562457662644 …
    ##  4 Baton Rouge,…             424                196    0.462 0.414198741860307 …
    ##  5 Birmingham, …             800                347    0.434 0.399188948632167 …
    ##  6 Boston, MA                614                310    0.505 0.464621930200304 …
    ##  7 Buffalo, NY               521                319    0.612 0.568798964634228 …
    ##  8 Charlotte, NC             687                206    0.300 0.26608198188312 -…
    ##  9 Chicago, IL              5535               4073    0.736 0.723995888425454 …
    ## 10 Cincinnati, …             694                309    0.445 0.407960574220688 …
    ## # ℹ 41 more rows
    ## # ℹ 2 more variables: conf.low <dbl>, conf.high <dbl>
…
